{
  "type": "Program",
  "start": 0,
  "end": 495,
  "loc": {
    "start": {
      "line": 1,
      "column": 0
    },
    "end": {
      "line": 15,
      "column": 0
    }
  },
  "sourceType": "module",
  "body": [
    {
      "type": "VariableDeclaration",
      "start": 1,
      "end": 55,
      "loc": {
        "start": {
          "line": 1,
          "column": 1
        },
        "end": {
          "line": 1,
          "column": 55
        }
      },
      "declarations": [
        {
          "type": "VariableDeclarator",
          "start": 7,
          "end": 54,
          "loc": {
            "start": {
              "line": 1,
              "column": 7
            },
            "end": {
              "line": 1,
              "column": 54
            }
          },
          "id": {
            "type": "Identifier",
            "start": 7,
            "end": 14,
            "loc": {
              "start": {
                "line": 1,
                "column": 7
              },
              "end": {
                "line": 1,
                "column": 14
              }
            },
            "name": "testUrl"
          },
          "init": {
            "type": "Literal",
            "start": 17,
            "end": 54,
            "loc": {
              "start": {
                "line": 1,
                "column": 17
              },
              "end": {
                "line": 1,
                "column": 54
              }
            },
            "value": "http://localhost:3000/folderService",
            "rawValue": "http://localhost:3000/folderService",
            "raw": "'http://localhost:3000/folderService'"
          }
        }
      ],
      "kind": "const"
    },
    {
      "type": "VariableDeclaration",
      "start": 56,
      "end": 107,
      "loc": {
        "start": {
          "line": 2,
          "column": 0
        },
        "end": {
          "line": 2,
          "column": 51
        }
      },
      "declarations": [
        {
          "type": "VariableDeclarator",
          "start": 62,
          "end": 107,
          "loc": {
            "start": {
              "line": 2,
              "column": 6
            },
            "end": {
              "line": 2,
              "column": 51
            }
          },
          "id": {
            "type": "Identifier",
            "start": 62,
            "end": 69,
            "loc": {
              "start": {
                "line": 2,
                "column": 6
              },
              "end": {
                "line": 2,
                "column": 13
              }
            },
            "name": "baseUrl"
          },
          "init": {
            "type": "Literal",
            "start": 72,
            "end": 107,
            "loc": {
              "start": {
                "line": 2,
                "column": 16
              },
              "end": {
                "line": 2,
                "column": 51
              }
            },
            "value": "http://10.219.43.96:8082/alfresco",
            "rawValue": "http://10.219.43.96:8082/alfresco",
            "raw": "\"http://10.219.43.96:8082/alfresco\""
          }
        }
      ],
      "kind": "const"
    },
    {
      "type": "VariableDeclaration",
      "start": 108,
      "end": 126,
      "loc": {
        "start": {
          "line": 3,
          "column": 0
        },
        "end": {
          "line": 3,
          "column": 18
        }
      },
      "declarations": [
        {
          "type": "VariableDeclarator",
          "start": 114,
          "end": 125,
          "loc": {
            "start": {
              "line": 3,
              "column": 6
            },
            "end": {
              "line": 3,
              "column": 17
            }
          },
          "id": {
            "type": "Identifier",
            "start": 114,
            "end": 120,
            "loc": {
              "start": {
                "line": 3,
                "column": 6
              },
              "end": {
                "line": 3,
                "column": 12
              }
            },
            "name": "ticket"
          },
          "init": {
            "type": "Literal",
            "start": 123,
            "end": 125,
            "loc": {
              "start": {
                "line": 3,
                "column": 15
              },
              "end": {
                "line": 3,
                "column": 17
              }
            },
            "value": "",
            "rawValue": "",
            "raw": "\"\""
          }
        }
      ],
      "kind": "const"
    },
    {
      "type": "VariableDeclaration",
      "start": 128,
      "end": 467,
      "loc": {
        "start": {
          "line": 5,
          "column": 0
        },
        "end": {
          "line": 12,
          "column": 1
        }
      },
      "declarations": [
        {
          "type": "VariableDeclarator",
          "start": 134,
          "end": 467,
          "loc": {
            "start": {
              "line": 5,
              "column": 6
            },
            "end": {
              "line": 12,
              "column": 1
            }
          },
          "id": {
            "type": "Identifier",
            "start": 134,
            "end": 141,
            "loc": {
              "start": {
                "line": 5,
                "column": 6
              },
              "end": {
                "line": 5,
                "column": 13
              }
            },
            "name": "service"
          },
          "init": {
            "type": "ObjectExpression",
            "start": 144,
            "end": 467,
            "loc": {
              "start": {
                "line": 5,
                "column": 16
              },
              "end": {
                "line": 12,
                "column": 1
              }
            },
            "properties": [
              {
                "type": "Property",
                "start": 147,
                "end": 193,
                "loc": {
                  "start": {
                    "line": 6,
                    "column": 1
                  },
                  "end": {
                    "line": 6,
                    "column": 47
                  }
                },
                "method": false,
                "shorthand": false,
                "computed": false,
                "key": {
                  "type": "Identifier",
                  "start": 147,
                  "end": 163,
                  "loc": {
                    "start": {
                      "line": 6,
                      "column": 1
                    },
                    "end": {
                      "line": 6,
                      "column": 17
                    }
                  },
                  "name": "questionMetaData"
                },
                "value": {
                  "type": "BinaryExpression",
                  "start": 165,
                  "end": 193,
                  "loc": {
                    "start": {
                      "line": 6,
                      "column": 19
                    },
                    "end": {
                      "line": 6,
                      "column": 47
                    }
                  },
                  "left": {
                    "type": "Identifier",
                    "start": 165,
                    "end": 172,
                    "loc": {
                      "start": {
                        "line": 6,
                        "column": 19
                      },
                      "end": {
                        "line": 6,
                        "column": 26
                      }
                    },
                    "name": "baseUrl"
                  },
                  "operator": "+",
                  "right": {
                    "type": "Literal",
                    "start": 175,
                    "end": 193,
                    "loc": {
                      "start": {
                        "line": 6,
                        "column": 29
                      },
                      "end": {
                        "line": 6,
                        "column": 47
                      }
                    },
                    "value": "questionMetaData",
                    "rawValue": "questionMetaData",
                    "raw": "'questionMetaData'"
                  }
                },
                "kind": "init"
              },
              {
                "type": "Property",
                "start": 196,
                "end": 250,
                "loc": {
                  "start": {
                    "line": 7,
                    "column": 1
                  },
                  "end": {
                    "line": 7,
                    "column": 55
                  }
                },
                "method": false,
                "shorthand": false,
                "computed": false,
                "key": {
                  "type": "Identifier",
                  "start": 196,
                  "end": 216,
                  "loc": {
                    "start": {
                      "line": 7,
                      "column": 1
                    },
                    "end": {
                      "line": 7,
                      "column": 21
                    }
                  },
                  "name": "saveQuestionMetaData"
                },
                "value": {
                  "type": "BinaryExpression",
                  "start": 218,
                  "end": 250,
                  "loc": {
                    "start": {
                      "line": 7,
                      "column": 23
                    },
                    "end": {
                      "line": 7,
                      "column": 55
                    }
                  },
                  "left": {
                    "type": "Identifier",
                    "start": 218,
                    "end": 225,
                    "loc": {
                      "start": {
                        "line": 7,
                        "column": 23
                      },
                      "end": {
                        "line": 7,
                        "column": 30
                      }
                    },
                    "name": "baseUrl"
                  },
                  "operator": "+",
                  "right": {
                    "type": "Literal",
                    "start": 228,
                    "end": 250,
                    "loc": {
                      "start": {
                        "line": 7,
                        "column": 33
                      },
                      "end": {
                        "line": 7,
                        "column": 55
                      }
                    },
                    "value": "saveQuestionMetaData",
                    "rawValue": "saveQuestionMetaData",
                    "raw": "'saveQuestionMetaData'"
                  }
                },
                "kind": "init"
              },
              {
                "type": "Property",
                "start": 256,
                "end": 340,
                "loc": {
                  "start": {
                    "line": 8,
                    "column": 4
                  },
                  "end": {
                    "line": 8,
                    "column": 88
                  }
                },
                "method": false,
                "shorthand": false,
                "computed": false,
                "key": {
                  "type": "Identifier",
                  "start": 256,
                  "end": 266,
                  "loc": {
                    "start": {
                      "line": 8,
                      "column": 4
                    },
                    "end": {
                      "line": 8,
                      "column": 14
                    }
                  },
                  "name": "assetsData"
                },
                "value": {
                  "type": "BinaryExpression",
                  "start": 268,
                  "end": 340,
                  "loc": {
                    "start": {
                      "line": 8,
                      "column": 16
                    },
                    "end": {
                      "line": 8,
                      "column": 88
                    }
                  },
                  "left": {
                    "type": "Identifier",
                    "start": 268,
                    "end": 275,
                    "loc": {
                      "start": {
                        "line": 8,
                        "column": 16
                      },
                      "end": {
                        "line": 8,
                        "column": 23
                      }
                    },
                    "name": "baseUrl"
                  },
                  "operator": "+",
                  "right": {
                    "type": "Literal",
                    "start": 278,
                    "end": 340,
                    "loc": {
                      "start": {
                        "line": 8,
                        "column": 26
                      },
                      "end": {
                        "line": 8,
                        "column": 88
                      }
                    },
                    "value": "api/-default-/public/cmis/versions/1.1/browser/root/Senthil?",
                    "rawValue": "api/-default-/public/cmis/versions/1.1/browser/root/Senthil?",
                    "raw": "'api/-default-/public/cmis/versions/1.1/browser/root/Senthil?'"
                  }
                },
                "kind": "init"
              },
              {
                "type": "Property",
                "start": 346,
                "end": 439,
                "loc": {
                  "start": {
                    "line": 9,
                    "column": 4
                  },
                  "end": {
                    "line": 9,
                    "column": 97
                  }
                },
                "method": false,
                "shorthand": false,
                "computed": false,
                "key": {
                  "type": "Identifier",
                  "start": 346,
                  "end": 356,
                  "loc": {
                    "start": {
                      "line": 9,
                      "column": 4
                    },
                    "end": {
                      "line": 9,
                      "column": 14
                    }
                  },
                  "name": "folderData"
                },
                "value": {
                  "type": "BinaryExpression",
                  "start": 358,
                  "end": 439,
                  "loc": {
                    "start": {
                      "line": 9,
                      "column": 16
                    },
                    "end": {
                      "line": 9,
                      "column": 97
                    }
                  },
                  "left": {
                    "type": "Identifier",
                    "start": 358,
                    "end": 365,
                    "loc": {
                      "start": {
                        "line": 9,
                        "column": 16
                      },
                      "end": {
                        "line": 9,
                        "column": 23
                      }
                    },
                    "name": "baseUrl"
                  },
                  "operator": "+",
                  "right": {
                    "type": "Literal",
                    "start": 368,
                    "end": 439,
                    "loc": {
                      "start": {
                        "line": 9,
                        "column": 26
                      },
                      "end": {
                        "line": 9,
                        "column": 97
                      }
                    },
                    "value": "/service/slingshot/doclib/doclist/treenode/node/alfresco/company/home",
                    "rawValue": "/service/slingshot/doclib/doclist/treenode/node/alfresco/company/home",
                    "raw": "'/service/slingshot/doclib/doclist/treenode/node/alfresco/company/home'"
                  }
                },
                "kind": "init"
              },
              {
                "type": "Property",
                "start": 445,
                "end": 464,
                "loc": {
                  "start": {
                    "line": 10,
                    "column": 4
                  },
                  "end": {
                    "line": 10,
                    "column": 23
                  }
                },
                "method": false,
                "shorthand": false,
                "computed": false,
                "key": {
                  "type": "Identifier",
                  "start": 445,
                  "end": 455,
                  "loc": {
                    "start": {
                      "line": 10,
                      "column": 4
                    },
                    "end": {
                      "line": 10,
                      "column": 14
                    }
                  },
                  "name": "testFolder"
                },
                "value": {
                  "type": "Identifier",
                  "start": 457,
                  "end": 464,
                  "loc": {
                    "start": {
                      "line": 10,
                      "column": 16
                    },
                    "end": {
                      "line": 10,
                      "column": 23
                    }
                  },
                  "name": "testUrl"
                },
                "kind": "init"
              }
            ]
          }
        }
      ],
      "kind": "const"
    },
    {
      "type": "ExpressionStatement",
      "start": 469,
      "end": 494,
      "loc": {
        "start": {
          "line": 14,
          "column": 0
        },
        "end": {
          "line": 14,
          "column": 25
        }
      },
      "expression": {
        "type": "AssignmentExpression",
        "start": 469,
        "end": 493,
        "loc": {
          "start": {
            "line": 14,
            "column": 0
          },
          "end": {
            "line": 14,
            "column": 24
          }
        },
        "operator": "=",
        "left": {
          "type": "MemberExpression",
          "start": 469,
          "end": 483,
          "loc": {
            "start": {
              "line": 14,
              "column": 0
            },
            "end": {
              "line": 14,
              "column": 14
            }
          },
          "object": {
            "type": "Identifier",
            "start": 469,
            "end": 475,
            "loc": {
              "start": {
                "line": 14,
                "column": 0
              },
              "end": {
                "line": 14,
                "column": 6
              }
            },
            "name": "module"
          },
          "property": {
            "type": "Identifier",
            "start": 476,
            "end": 483,
            "loc": {
              "start": {
                "line": 14,
                "column": 7
              },
              "end": {
                "line": 14,
                "column": 14
              }
            },
            "name": "exports"
          },
          "computed": false
        },
        "right": {
          "type": "Identifier",
          "start": 486,
          "end": 493,
          "loc": {
            "start": {
              "line": 14,
              "column": 17
            },
            "end": {
              "line": 14,
              "column": 24
            }
          },
          "name": "service"
        }
      }
    }
  ]
}