{
  "type": "Program",
  "start": 0,
  "end": 580,
  "loc": {
    "start": {
      "line": 1,
      "column": 0
    },
    "end": {
      "line": 25,
      "column": 28
    }
  },
  "sourceType": "module",
  "body": [
    {
      "type": "ExpressionStatement",
      "start": 0,
      "end": 13,
      "loc": {
        "start": {
          "line": 1,
          "column": 0
        },
        "end": {
          "line": 1,
          "column": 13
        }
      },
      "expression": {
        "type": "Literal",
        "start": 0,
        "end": 12,
        "loc": {
          "start": {
            "line": 1,
            "column": 0
          },
          "end": {
            "line": 1,
            "column": 12
          }
        },
        "value": "use strict",
        "rawValue": "use strict",
        "raw": "\"use strict\""
      }
    },
    {
      "type": "VariableDeclaration",
      "start": 14,
      "end": 43,
      "loc": {
        "start": {
          "line": 2,
          "column": 0
        },
        "end": {
          "line": 2,
          "column": 29
        }
      },
      "declarations": [
        {
          "type": "VariableDeclarator",
          "start": 18,
          "end": 42,
          "loc": {
            "start": {
              "line": 2,
              "column": 4
            },
            "end": {
              "line": 2,
              "column": 28
            }
          },
          "id": {
            "type": "Identifier",
            "start": 18,
            "end": 23,
            "loc": {
              "start": {
                "line": 2,
                "column": 4
              },
              "end": {
                "line": 2,
                "column": 9
              }
            },
            "name": "React"
          },
          "init": {
            "type": "CallExpression",
            "start": 26,
            "end": 42,
            "loc": {
              "start": {
                "line": 2,
                "column": 12
              },
              "end": {
                "line": 2,
                "column": 28
              }
            },
            "callee": {
              "type": "Identifier",
              "start": 26,
              "end": 33,
              "loc": {
                "start": {
                  "line": 2,
                  "column": 12
                },
                "end": {
                  "line": 2,
                  "column": 19
                }
              },
              "name": "require"
            },
            "arguments": [
              {
                "type": "Literal",
                "start": 34,
                "end": 41,
                "loc": {
                  "start": {
                    "line": 2,
                    "column": 20
                  },
                  "end": {
                    "line": 2,
                    "column": 27
                  }
                },
                "value": "react",
                "rawValue": "react",
                "raw": "'react'"
              }
            ]
          }
        }
      ],
      "kind": "var"
    },
    {
      "type": "ImportDeclaration",
      "start": 44,
      "end": 74,
      "loc": {
        "start": {
          "line": 3,
          "column": 0
        },
        "end": {
          "line": 3,
          "column": 30
        }
      },
      "specifiers": [
        {
          "type": "ImportDefaultSpecifier",
          "start": 51,
          "end": 57,
          "loc": {
            "start": {
              "line": 3,
              "column": 7
            },
            "end": {
              "line": 3,
              "column": 13
            }
          },
          "local": {
            "type": "Identifier",
            "start": 51,
            "end": 57,
            "loc": {
              "start": {
                "line": 3,
                "column": 7
              },
              "end": {
                "line": 3,
                "column": 13
              }
            },
            "name": "Assets"
          }
        }
      ],
      "importKind": "value",
      "source": {
        "type": "Literal",
        "start": 63,
        "end": 73,
        "loc": {
          "start": {
            "line": 3,
            "column": 19
          },
          "end": {
            "line": 3,
            "column": 29
          }
        },
        "value": "./assets",
        "rawValue": "./assets",
        "raw": "'./assets'"
      }
    },
    {
      "type": "ClassDeclaration",
      "start": 76,
      "end": 550,
      "loc": {
        "start": {
          "line": 5,
          "column": 0
        },
        "end": {
          "line": 23,
          "column": 1
        }
      },
      "id": {
        "type": "Identifier",
        "start": 82,
        "end": 92,
        "loc": {
          "start": {
            "line": 5,
            "column": 6
          },
          "end": {
            "line": 5,
            "column": 16
          }
        },
        "name": "assetsList"
      },
      "superClass": {
        "type": "MemberExpression",
        "start": 101,
        "end": 116,
        "loc": {
          "start": {
            "line": 5,
            "column": 25
          },
          "end": {
            "line": 5,
            "column": 40
          }
        },
        "object": {
          "type": "Identifier",
          "start": 101,
          "end": 106,
          "loc": {
            "start": {
              "line": 5,
              "column": 25
            },
            "end": {
              "line": 5,
              "column": 30
            }
          },
          "name": "React"
        },
        "property": {
          "type": "Identifier",
          "start": 107,
          "end": 116,
          "loc": {
            "start": {
              "line": 5,
              "column": 31
            },
            "end": {
              "line": 5,
              "column": 40
            }
          },
          "name": "Component"
        },
        "computed": false
      },
      "body": {
        "type": "ClassBody",
        "start": 117,
        "end": 550,
        "loc": {
          "start": {
            "line": 5,
            "column": 41
          },
          "end": {
            "line": 23,
            "column": 1
          }
        },
        "body": [
          {
            "type": "MethodDefinition",
            "start": 123,
            "end": 548,
            "loc": {
              "start": {
                "line": 6,
                "column": 4
              },
              "end": {
                "line": 22,
                "column": 5
              }
            },
            "computed": false,
            "key": {
              "type": "Identifier",
              "start": 123,
              "end": 129,
              "loc": {
                "start": {
                  "line": 6,
                  "column": 4
                },
                "end": {
                  "line": 6,
                  "column": 10
                }
              },
              "name": "render"
            },
            "static": false,
            "kind": "method",
            "value": {
              "type": "FunctionExpression",
              "start": 130,
              "end": 548,
              "loc": {
                "start": {
                  "line": 6,
                  "column": 11
                },
                "end": {
                  "line": 22,
                  "column": 5
                }
              },
              "id": null,
              "generator": false,
              "expression": false,
              "async": false,
              "params": [],
              "body": {
                "type": "BlockStatement",
                "start": 133,
                "end": 548,
                "loc": {
                  "start": {
                    "line": 6,
                    "column": 14
                  },
                  "end": {
                    "line": 22,
                    "column": 5
                  }
                },
                "body": [
                  {
                    "type": "VariableDeclaration",
                    "start": 143,
                    "end": 188,
                    "loc": {
                      "start": {
                        "line": 7,
                        "column": 8
                      },
                      "end": {
                        "line": 7,
                        "column": 53
                      }
                    },
                    "declarations": [
                      {
                        "type": "VariableDeclarator",
                        "start": 147,
                        "end": 187,
                        "loc": {
                          "start": {
                            "line": 7,
                            "column": 12
                          },
                          "end": {
                            "line": 7,
                            "column": 52
                          }
                        },
                        "id": {
                          "type": "Identifier",
                          "start": 147,
                          "end": 160,
                          "loc": {
                            "start": {
                              "line": 7,
                              "column": 12
                            },
                            "end": {
                              "line": 7,
                              "column": 25
                            }
                          },
                          "name": "cssGridLayout"
                        },
                        "init": {
                          "type": "MemberExpression",
                          "start": 163,
                          "end": 187,
                          "loc": {
                            "start": {
                              "line": 7,
                              "column": 28
                            },
                            "end": {
                              "line": 7,
                              "column": 52
                            }
                          },
                          "object": {
                            "type": "MemberExpression",
                            "start": 163,
                            "end": 173,
                            "loc": {
                              "start": {
                                "line": 7,
                                "column": 28
                              },
                              "end": {
                                "line": 7,
                                "column": 38
                              }
                            },
                            "object": {
                              "type": "ThisExpression",
                              "start": 163,
                              "end": 167,
                              "loc": {
                                "start": {
                                  "line": 7,
                                  "column": 28
                                },
                                "end": {
                                  "line": 7,
                                  "column": 32
                                }
                              }
                            },
                            "property": {
                              "type": "Identifier",
                              "start": 168,
                              "end": 173,
                              "loc": {
                                "start": {
                                  "line": 7,
                                  "column": 33
                                },
                                "end": {
                                  "line": 7,
                                  "column": 38
                                }
                              },
                              "name": "props"
                            },
                            "computed": false
                          },
                          "property": {
                            "type": "Identifier",
                            "start": 174,
                            "end": 187,
                            "loc": {
                              "start": {
                                "line": 7,
                                "column": 39
                              },
                              "end": {
                                "line": 7,
                                "column": 52
                              }
                            },
                            "name": "cssGridLayout"
                          },
                          "computed": false
                        }
                      }
                    ],
                    "kind": "var"
                  },
                  {
                    "type": "VariableDeclaration",
                    "start": 198,
                    "end": 446,
                    "loc": {
                      "start": {
                        "line": 9,
                        "column": 8
                      },
                      "end": {
                        "line": 15,
                        "column": 11
                      }
                    },
                    "declarations": [
                      {
                        "type": "VariableDeclarator",
                        "start": 202,
                        "end": 445,
                        "loc": {
                          "start": {
                            "line": 9,
                            "column": 12
                          },
                          "end": {
                            "line": 15,
                            "column": 10
                          }
                        },
                        "id": {
                          "type": "Identifier",
                          "start": 202,
                          "end": 211,
                          "loc": {
                            "start": {
                              "line": 9,
                              "column": 12
                            },
                            "end": {
                              "line": 9,
                              "column": 21
                            }
                          },
                          "name": "listItems"
                        },
                        "init": {
                          "type": "CallExpression",
                          "start": 214,
                          "end": 445,
                          "loc": {
                            "start": {
                              "line": 9,
                              "column": 24
                            },
                            "end": {
                              "line": 15,
                              "column": 10
                            }
                          },
                          "callee": {
                            "type": "MemberExpression",
                            "start": 214,
                            "end": 233,
                            "loc": {
                              "start": {
                                "line": 9,
                                "column": 24
                              },
                              "end": {
                                "line": 9,
                                "column": 43
                              }
                            },
                            "object": {
                              "type": "MemberExpression",
                              "start": 214,
                              "end": 229,
                              "loc": {
                                "start": {
                                  "line": 9,
                                  "column": 24
                                },
                                "end": {
                                  "line": 9,
                                  "column": 39
                                }
                              },
                              "object": {
                                "type": "MemberExpression",
                                "start": 214,
                                "end": 224,
                                "loc": {
                                  "start": {
                                    "line": 9,
                                    "column": 24
                                  },
                                  "end": {
                                    "line": 9,
                                    "column": 34
                                  }
                                },
                                "object": {
                                  "type": "ThisExpression",
                                  "start": 214,
                                  "end": 218,
                                  "loc": {
                                    "start": {
                                      "line": 9,
                                      "column": 24
                                    },
                                    "end": {
                                      "line": 9,
                                      "column": 28
                                    }
                                  }
                                },
                                "property": {
                                  "type": "Identifier",
                                  "start": 219,
                                  "end": 224,
                                  "loc": {
                                    "start": {
                                      "line": 9,
                                      "column": 29
                                    },
                                    "end": {
                                      "line": 9,
                                      "column": 34
                                    }
                                  },
                                  "name": "props"
                                },
                                "computed": false
                              },
                              "property": {
                                "type": "Identifier",
                                "start": 225,
                                "end": 229,
                                "loc": {
                                  "start": {
                                    "line": 9,
                                    "column": 35
                                  },
                                  "end": {
                                    "line": 9,
                                    "column": 39
                                  }
                                },
                                "name": "list"
                              },
                              "computed": false
                            },
                            "property": {
                              "type": "Identifier",
                              "start": 230,
                              "end": 233,
                              "loc": {
                                "start": {
                                  "line": 9,
                                  "column": 40
                                },
                                "end": {
                                  "line": 9,
                                  "column": 43
                                }
                              },
                              "name": "map"
                            },
                            "computed": false
                          },
                          "arguments": [
                            {
                              "type": "FunctionExpression",
                              "start": 234,
                              "end": 444,
                              "loc": {
                                "start": {
                                  "line": 9,
                                  "column": 44
                                },
                                "end": {
                                  "line": 15,
                                  "column": 9
                                }
                              },
                              "id": null,
                              "generator": false,
                              "expression": false,
                              "async": false,
                              "params": [
                                {
                                  "type": "Identifier",
                                  "start": 243,
                                  "end": 247,
                                  "loc": {
                                    "start": {
                                      "line": 9,
                                      "column": 53
                                    },
                                    "end": {
                                      "line": 9,
                                      "column": 57
                                    }
                                  },
                                  "name": "item"
                                }
                              ],
                              "body": {
                                "type": "BlockStatement",
                                "start": 249,
                                "end": 444,
                                "loc": {
                                  "start": {
                                    "line": 9,
                                    "column": 59
                                  },
                                  "end": {
                                    "line": 15,
                                    "column": 9
                                  }
                                },
                                "body": [
                                  {
                                    "type": "ReturnStatement",
                                    "start": 264,
                                    "end": 434,
                                    "loc": {
                                      "start": {
                                        "line": 10,
                                        "column": 13
                                      },
                                      "end": {
                                        "line": 14,
                                        "column": 14
                                      }
                                    },
                                    "argument": {
                                      "type": "JSXElement",
                                      "start": 289,
                                      "end": 419,
                                      "loc": {
                                        "start": {
                                          "line": 11,
                                          "column": 16
                                        },
                                        "end": {
                                          "line": 13,
                                          "column": 22
                                        }
                                      },
                                      "openingElement": {
                                        "type": "JSXOpeningElement",
                                        "start": 289,
                                        "end": 344,
                                        "loc": {
                                          "start": {
                                            "line": 11,
                                            "column": 16
                                          },
                                          "end": {
                                            "line": 11,
                                            "column": 71
                                          }
                                        },
                                        "attributes": [
                                          {
                                            "type": "JSXAttribute",
                                            "start": 294,
                                            "end": 307,
                                            "loc": {
                                              "start": {
                                                "line": 11,
                                                "column": 21
                                              },
                                              "end": {
                                                "line": 11,
                                                "column": 34
                                              }
                                            },
                                            "name": {
                                              "type": "JSXIdentifier",
                                              "start": 294,
                                              "end": 297,
                                              "loc": {
                                                "start": {
                                                  "line": 11,
                                                  "column": 21
                                                },
                                                "end": {
                                                  "line": 11,
                                                  "column": 24
                                                }
                                              },
                                              "name": "key"
                                            },
                                            "value": {
                                              "type": "JSXExpressionContainer",
                                              "start": 298,
                                              "end": 307,
                                              "loc": {
                                                "start": {
                                                  "line": 11,
                                                  "column": 25
                                                },
                                                "end": {
                                                  "line": 11,
                                                  "column": 34
                                                }
                                              },
                                              "expression": {
                                                "type": "MemberExpression",
                                                "start": 299,
                                                "end": 306,
                                                "loc": {
                                                  "start": {
                                                    "line": 11,
                                                    "column": 26
                                                  },
                                                  "end": {
                                                    "line": 11,
                                                    "column": 33
                                                  }
                                                },
                                                "object": {
                                                  "type": "Identifier",
                                                  "start": 299,
                                                  "end": 303,
                                                  "loc": {
                                                    "start": {
                                                      "line": 11,
                                                      "column": 26
                                                    },
                                                    "end": {
                                                      "line": 11,
                                                      "column": 30
                                                    }
                                                  },
                                                  "name": "item"
                                                },
                                                "property": {
                                                  "type": "Identifier",
                                                  "start": 304,
                                                  "end": 306,
                                                  "loc": {
                                                    "start": {
                                                      "line": 11,
                                                      "column": 31
                                                    },
                                                    "end": {
                                                      "line": 11,
                                                      "column": 33
                                                    }
                                                  },
                                                  "name": "id"
                                                },
                                                "computed": false
                                              }
                                            }
                                          },
                                          {
                                            "type": "JSXAttribute",
                                            "start": 308,
                                            "end": 343,
                                            "loc": {
                                              "start": {
                                                "line": 11,
                                                "column": 35
                                              },
                                              "end": {
                                                "line": 11,
                                                "column": 70
                                              }
                                            },
                                            "name": {
                                              "type": "JSXIdentifier",
                                              "start": 308,
                                              "end": 317,
                                              "loc": {
                                                "start": {
                                                  "line": 11,
                                                  "column": 35
                                                },
                                                "end": {
                                                  "line": 11,
                                                  "column": 44
                                                }
                                              },
                                              "name": "className"
                                            },
                                            "value": {
                                              "type": "JSXExpressionContainer",
                                              "start": 318,
                                              "end": 343,
                                              "loc": {
                                                "start": {
                                                  "line": 11,
                                                  "column": 45
                                                },
                                                "end": {
                                                  "line": 11,
                                                  "column": 70
                                                }
                                              },
                                              "expression": {
                                                "type": "BinaryExpression",
                                                "start": 319,
                                                "end": 342,
                                                "loc": {
                                                  "start": {
                                                    "line": 11,
                                                    "column": 46
                                                  },
                                                  "end": {
                                                    "line": 11,
                                                    "column": 69
                                                  }
                                                },
                                                "left": {
                                                  "type": "Literal",
                                                  "start": 319,
                                                  "end": 328,
                                                  "loc": {
                                                    "start": {
                                                      "line": 11,
                                                      "column": 46
                                                    },
                                                    "end": {
                                                      "line": 11,
                                                      "column": 55
                                                    }
                                                  },
                                                  "value": "col-md-",
                                                  "rawValue": "col-md-",
                                                  "raw": "\"col-md-\""
                                                },
                                                "operator": "+",
                                                "right": {
                                                  "type": "Identifier",
                                                  "start": 329,
                                                  "end": 342,
                                                  "loc": {
                                                    "start": {
                                                      "line": 11,
                                                      "column": 56
                                                    },
                                                    "end": {
                                                      "line": 11,
                                                      "column": 69
                                                    }
                                                  },
                                                  "name": "cssGridLayout"
                                                }
                                              }
                                            }
                                          }
                                        ],
                                        "name": {
                                          "type": "JSXIdentifier",
                                          "start": 290,
                                          "end": 293,
                                          "loc": {
                                            "start": {
                                              "line": 11,
                                              "column": 17
                                            },
                                            "end": {
                                              "line": 11,
                                              "column": 20
                                            }
                                          },
                                          "name": "div"
                                        },
                                        "selfClosing": false
                                      },
                                      "closingElement": {
                                        "type": "JSXClosingElement",
                                        "start": 413,
                                        "end": 419,
                                        "loc": {
                                          "start": {
                                            "line": 13,
                                            "column": 16
                                          },
                                          "end": {
                                            "line": 13,
                                            "column": 22
                                          }
                                        },
                                        "name": {
                                          "type": "JSXIdentifier",
                                          "start": 415,
                                          "end": 418,
                                          "loc": {
                                            "start": {
                                              "line": 13,
                                              "column": 18
                                            },
                                            "end": {
                                              "line": 13,
                                              "column": 21
                                            }
                                          },
                                          "name": "div"
                                        }
                                      },
                                      "children": [
                                        {
                                          "type": "Literal",
                                          "start": 344,
                                          "end": 365,
                                          "loc": {
                                            "start": {
                                              "line": 11,
                                              "column": 71
                                            },
                                            "end": {
                                              "line": 12,
                                              "column": 20
                                            }
                                          },
                                          "value": "\n                    ",
                                          "rawValue": null,
                                          "raw": "\n                    "
                                        },
                                        {
                                          "type": "JSXElement",
                                          "start": 365,
                                          "end": 396,
                                          "loc": {
                                            "start": {
                                              "line": 12,
                                              "column": 20
                                            },
                                            "end": {
                                              "line": 12,
                                              "column": 51
                                            }
                                          },
                                          "openingElement": {
                                            "type": "JSXOpeningElement",
                                            "start": 365,
                                            "end": 396,
                                            "loc": {
                                              "start": {
                                                "line": 12,
                                                "column": 20
                                              },
                                              "end": {
                                                "line": 12,
                                                "column": 51
                                              }
                                            },
                                            "attributes": [
                                              {
                                                "type": "JSXAttribute",
                                                "start": 373,
                                                "end": 393,
                                                "loc": {
                                                  "start": {
                                                    "line": 12,
                                                    "column": 28
                                                  },
                                                  "end": {
                                                    "line": 12,
                                                    "column": 48
                                                  }
                                                },
                                                "name": {
                                                  "type": "JSXIdentifier",
                                                  "start": 373,
                                                  "end": 384,
                                                  "loc": {
                                                    "start": {
                                                      "line": 12,
                                                      "column": 28
                                                    },
                                                    "end": {
                                                      "line": 12,
                                                      "column": 39
                                                    }
                                                  },
                                                  "name": "productTemp"
                                                },
                                                "value": {
                                                  "type": "JSXExpressionContainer",
                                                  "start": 387,
                                                  "end": 393,
                                                  "loc": {
                                                    "start": {
                                                      "line": 12,
                                                      "column": 42
                                                    },
                                                    "end": {
                                                      "line": 12,
                                                      "column": 48
                                                    }
                                                  },
                                                  "expression": {
                                                    "type": "Identifier",
                                                    "start": 388,
                                                    "end": 392,
                                                    "loc": {
                                                      "start": {
                                                        "line": 12,
                                                        "column": 43
                                                      },
                                                      "end": {
                                                        "line": 12,
                                                        "column": 47
                                                      }
                                                    },
                                                    "name": "item"
                                                  }
                                                }
                                              }
                                            ],
                                            "name": {
                                              "type": "JSXIdentifier",
                                              "start": 366,
                                              "end": 372,
                                              "loc": {
                                                "start": {
                                                  "line": 12,
                                                  "column": 21
                                                },
                                                "end": {
                                                  "line": 12,
                                                  "column": 27
                                                }
                                              },
                                              "name": "Assets"
                                            },
                                            "selfClosing": true
                                          },
                                          "closingElement": null,
                                          "children": []
                                        },
                                        {
                                          "type": "Literal",
                                          "start": 396,
                                          "end": 413,
                                          "loc": {
                                            "start": {
                                              "line": 12,
                                              "column": 51
                                            },
                                            "end": {
                                              "line": 13,
                                              "column": 16
                                            }
                                          },
                                          "value": "\n                ",
                                          "rawValue": null,
                                          "raw": "\n                "
                                        }
                                      ],
                                      "parenthesizedExpression": true
                                    }
                                  }
                                ]
                              }
                            }
                          ]
                        }
                      }
                    ],
                    "kind": "var"
                  },
                  {
                    "type": "ReturnStatement",
                    "start": 456,
                    "end": 542,
                    "loc": {
                      "start": {
                        "line": 17,
                        "column": 8
                      },
                      "end": {
                        "line": 21,
                        "column": 9
                      }
                    },
                    "argument": {
                      "type": "JSXElement",
                      "start": 477,
                      "end": 532,
                      "loc": {
                        "start": {
                          "line": 18,
                          "column": 12
                        },
                        "end": {
                          "line": 20,
                          "column": 18
                        }
                      },
                      "openingElement": {
                        "type": "JSXOpeningElement",
                        "start": 477,
                        "end": 487,
                        "loc": {
                          "start": {
                            "line": 18,
                            "column": 12
                          },
                          "end": {
                            "line": 18,
                            "column": 22
                          }
                        },
                        "attributes": [
                          {
                            "type": "JSXAttribute",
                            "start": 482,
                            "end": 486,
                            "loc": {
                              "start": {
                                "line": 18,
                                "column": 17
                              },
                              "end": {
                                "line": 18,
                                "column": 21
                              }
                            },
                            "name": {
                              "type": "JSXIdentifier",
                              "start": 482,
                              "end": 486,
                              "loc": {
                                "start": {
                                  "line": 18,
                                  "column": 17
                                },
                                "end": {
                                  "line": 18,
                                  "column": 21
                                }
                              },
                              "name": "test"
                            },
                            "value": null
                          }
                        ],
                        "name": {
                          "type": "JSXIdentifier",
                          "start": 478,
                          "end": 481,
                          "loc": {
                            "start": {
                              "line": 18,
                              "column": 13
                            },
                            "end": {
                              "line": 18,
                              "column": 16
                            }
                          },
                          "name": "div"
                        },
                        "selfClosing": false
                      },
                      "closingElement": {
                        "type": "JSXClosingElement",
                        "start": 526,
                        "end": 532,
                        "loc": {
                          "start": {
                            "line": 20,
                            "column": 12
                          },
                          "end": {
                            "line": 20,
                            "column": 18
                          }
                        },
                        "name": {
                          "type": "JSXIdentifier",
                          "start": 528,
                          "end": 531,
                          "loc": {
                            "start": {
                              "line": 20,
                              "column": 14
                            },
                            "end": {
                              "line": 20,
                              "column": 17
                            }
                          },
                          "name": "div"
                        }
                      },
                      "children": [
                        {
                          "type": "Literal",
                          "start": 487,
                          "end": 502,
                          "loc": {
                            "start": {
                              "line": 18,
                              "column": 22
                            },
                            "end": {
                              "line": 19,
                              "column": 14
                            }
                          },
                          "value": "\n              ",
                          "rawValue": null,
                          "raw": "\n              "
                        },
                        {
                          "type": "JSXExpressionContainer",
                          "start": 502,
                          "end": 513,
                          "loc": {
                            "start": {
                              "line": 19,
                              "column": 14
                            },
                            "end": {
                              "line": 19,
                              "column": 25
                            }
                          },
                          "expression": {
                            "type": "Identifier",
                            "start": 503,
                            "end": 512,
                            "loc": {
                              "start": {
                                "line": 19,
                                "column": 15
                              },
                              "end": {
                                "line": 19,
                                "column": 24
                              }
                            },
                            "name": "listItems"
                          }
                        },
                        {
                          "type": "Literal",
                          "start": 513,
                          "end": 526,
                          "loc": {
                            "start": {
                              "line": 19,
                              "column": 25
                            },
                            "end": {
                              "line": 20,
                              "column": 12
                            }
                          },
                          "value": "\n            ",
                          "rawValue": null,
                          "raw": "\n            "
                        }
                      ],
                      "parenthesizedExpression": true
                    }
                  }
                ]
              }
            }
          }
        ]
      }
    },
    {
      "type": "ExpressionStatement",
      "start": 552,
      "end": 580,
      "loc": {
        "start": {
          "line": 25,
          "column": 0
        },
        "end": {
          "line": 25,
          "column": 28
        }
      },
      "expression": {
        "type": "AssignmentExpression",
        "start": 552,
        "end": 579,
        "loc": {
          "start": {
            "line": 25,
            "column": 0
          },
          "end": {
            "line": 25,
            "column": 27
          }
        },
        "operator": "=",
        "left": {
          "type": "MemberExpression",
          "start": 552,
          "end": 566,
          "loc": {
            "start": {
              "line": 25,
              "column": 0
            },
            "end": {
              "line": 25,
              "column": 14
            }
          },
          "object": {
            "type": "Identifier",
            "start": 552,
            "end": 558,
            "loc": {
              "start": {
                "line": 25,
                "column": 0
              },
              "end": {
                "line": 25,
                "column": 6
              }
            },
            "name": "module"
          },
          "property": {
            "type": "Identifier",
            "start": 559,
            "end": 566,
            "loc": {
              "start": {
                "line": 25,
                "column": 7
              },
              "end": {
                "line": 25,
                "column": 14
              }
            },
            "name": "exports"
          },
          "computed": false
        },
        "right": {
          "type": "Identifier",
          "start": 569,
          "end": 579,
          "loc": {
            "start": {
              "line": 25,
              "column": 17
            },
            "end": {
              "line": 25,
              "column": 27
            }
          },
          "name": "assetsList"
        }
      }
    }
  ]
}